{
  "daily_settings": [],
  "monthly_settings": [],
  "number_of_on_calls": 1,
  "recurrence_multiplier": 2,
  "shift_coverages": [
    {
      "coverage_times": [
        {
          "end": [
            {
              "hour_of_day": 0,
              "minute_of_hour": 0
            }
          ],
          "start": [
            {
              "hour_of_day": 0,
              "minute_of_hour": 0
            }
          ]
        }
      ],
      "map_block_key": "SAT"
    },
    {
      "coverage_times": [
        {
          "end": [
            {
              "hour_of_day": 0,
              "minute_of_hour": 0
            }
          ],
          "start": [
            {
              "hour_of_day": 0,
              "minute_of_hour": 0
            }
          ]
        }
      ],
      "map_block_key": "SUN"
    },
    {
      "coverage_times": [
        {
          "end": [
            {
              "hour_of_day": 0,
              "minute_of_hour": 0
            }
          ],
          "start": [
            {
              "hour_of_day": 0,
              "minute_of_hour": 0
            }
          ]
        }
      ],
      "map_block_key": "THU"
    },
    {
      "coverage_times": [
        {
          "end": [
            {
              "hour_of_day": 0,
              "minute_of_hour": 0
            }
          ],
          "start": [
            {
              "hour_of_day": 0,
              "minute_of_hour": 0
            }
          ]
        }
      ],
      "map_block_key": "TUE"
    },
    {
      "coverage_times": [
        {
          "end": [
            {
              "hour_of_day": 0,
              "minute_of_hour": 0
            }
          ],
          "start": [
            {
              "hour_of_day": 0,
              "minute_of_hour": 0
            }
          ]
        }
      ],
      "map_block_key": "WED"
    },
    {
      "coverage_times": [
        {
          "end": [
            {
              "hour_of_day": 0,
              "minute_of_hour": 0
            }
          ],
          "start": [
            {
              "hour_of_day": 0,
              "minute_of_hour": 0
            }
          ]
        }
      ],
      "map_block_key": "FRI"
    },
    {
      "coverage_times": [
        {
          "end": [
            {
              "hour_of_day": 0,
              "minute_of_hour": 0
            }
          ],
          "start": [
            {
              "hour_of_day": 0,
              "minute_of_hour": 0
            }
          ]
        }
      ],
      "map_block_key": "MON"
    }
  ],
  "weekly_settings": [
    {
      "day_of_week": "FRI",
      "hand_off_time": [
        {
          "hour_of_day": 0,
          "minute_of_hour": 0
        }
      ]
    }
  ]
}
